[
    {
        "date": "2018",
        "titre": "Naissance de Léonie",
        "description": "Bienvenue ici !"
    },
    {
        "date": "2000",
        "titre": "Bug",
        "description": "Ce qui devait arriver arriva..."
    }
]
